Proyecto 1/RESULTADOS FINALES.vcd
$date
	Tue Apr 15 23:58:50 2025
$end
$version
	GTKWave Analyzer v3.3.100 (w)1999-2019 BSI
$end
$timescale
	1ns
$end
$scope module BancoDeRegistros8088_tb $end
$scope module DUT $end
$var wire 16 ' SALIDA[15:0] $end
$var wire 8 + CH[7:0] $end
$var wire 8 / BH[7:0] $end
$scope module MuxSalida $end
$var wire 16 3 A11[15:0] $end
$upscope $end
$var wire 8 ( AL[7:0] $end
$var wire 8 ) AH[7:0] $end
$var wire 8 * CL[7:0] $end
$scope module MuxSalida $end
$var wire 16 2 A10[15:0] $end
$var wire 16 1 A9[15:0] $end
$upscope $end
$var wire 8 , DL[7:0] $end
$scope module MuxSalida $end
$var wire 16 0 A8[15:0] $end
$upscope $end
$var wire 16 5 BP[15:0] $end
$var wire 8 . BL[7:0] $end
$var wire 8 - DH[7:0] $end
$var wire 1 " CLK $end
$var wire 16 4 SP[15:0] $end
$var wire 16 6 SI[15:0] $end
$var wire 16 & DATA[15:0] $end
$var wire 1 $ WR $end
$var wire 1 % RD $end
$var wire 4 # SEL[3:0] $end
$var wire 16 7 DI[15:0] $end
$upscope $end
$upscope $end
$enddefinitions $end
$dumpvars
#0
0"
b0 0
b0 1
b0 3
b0 '
b0 +
b0 6
b0 2
b0 4
b0 #
b0 (
bz &
0$
0%
b0 ,
b0 -
b0 )
b0 7
b0 /
b0 *
b0 5
b0 .
#10
1"
#20
0"
#30
1"
#40
0"
#50
1"
#60
0"
#70
1"
1$
b10100001 &
#80
0"
#90
1"
bz &
b10100001 0
b10100001 '
0$
b10100001 (
#100
0"
#110
1"
1%
b10100001 &
#120
0"
#130
1"
bz &
0%
#140
0"
#150
1"
b1010001000000000 &
1$
b0 '
b100 #
#160
0"
#170
1"
b10100010 '
0$
bz &
b1010001010100001 0
b10100010 )
#180
0"
#190
1"
1%
b10100010 &
#200
0"
#210
1"
bz &
0%
#220
0"
#230
1"
b1 #
b11000001 &
1$
b0 '
#240
0"
#250
1"
b11000001 '
b11000001 1
0$
bz &
b11000001 *
#260
0"
#270
1"
1%
b11000001 &
#280
0"
#290
1"
bz &
0%
#300
0"
#310
1"
1$
b0 '
b101 #
b1100001000000000 &
#320
0"
#330
1"
bz &
b11000010 +
b11000010 '
b1100001011000001 1
0$
#340
0"
#350
1"
1%
b11000010 &
#360
0"
#370
1"
bz &
0%
#380
0"
#390
1"
1$
b11010001 &
b0 '
b10 #
#400
0"
#410
1"
bz &
0$
b11010001 2
b11010001 '
b11010001 ,
#420
0"
#430
1"
1%
b11010001 &
#440
0"
#450
1"
bz &
0%
#460
0"
#470
1"
b1101001000000000 &
1$
b110 #
b0 '
#480
0"
#490
1"
b11010010 '
b0 (
0$
bz &
b1101001011010001 2
b11010010 -
b1010001000000000 0
#500
0"
#510
1"
1%
b11010010 &
#520
0"
#530
1"
bz &
0%
#540
0"
#550
1"
1$
b0 '
b10110001 &
b11 #
#560
0"
#570
1"
b10110001 3
0$
b10110001 .
bz &
b10110001 '
#580
0"
#590
1"
1%
b10110001 &
#600
0"
#610
1"
bz &
0%
#620
0"
#630
1"
b0 '
b111 #
1$
b1011001000000000 &
#640
0"
#650
1"
bz &
b10110010 '
b1011001010110001 3
0$
b10110010 /
#660
0"
#670
1"
1%
b10110010 &
#680
0"
#690
1"
bz &
0%
#700
0"
#710
1"
b1000 #
b1010001110100100 &
b1010001000000000 '
1$
#720
0"
#730
1"
0$
b10100011 )
bz &
b1010001110100100 0
b10100100 (
b1010001110100100 '
#740
0"
#750
1"
1%
b1010001110100100 &
#760
0"
#770
1"
bz &
0%
#780
0"
#790
1"
b1100001011000001 '
b1100001111000100 &
1$
b1001 #
#800
0"
#810
1"
b11000100 *
b1100001111000100 1
0$
bz &
b1100001111000100 '
b11000011 +
#820
0"
#830
1"
1%
b1100001111000100 &
#840
0"
#850
1"
bz &
0%
#860
0"
#870
1"
b1101001011010001 '
b1010 #
b1101001111010100 &
1$
#880
0"
#890
1"
0$
bz &
b11010100 ,
b1101001111010100 '
b11010011 -
b1101001111010100 2
#900
0"
#910
1"
1%
b1101001111010100 &
#920
0"
#930
1"
bz &
0%
#940
0"
#950
1"
1$
b1011001110110100 &
b1011 #
b1011001010110001 '
#960
0"
#970
1"
b1011001110110100 '
b10110011 /
bz &
0$
b10110100 .
b1011001110110100 3
#980
0"
#990
1"
b1011001110110100 &
1%
#1000
0"
#1010
1"
0%
bz &
#1020
0"
#1030
1"
b1001000110100 &
b0 '
b1100 #
1$
#1040
0"
#1050
1"
0$
bz &
bz 4
bz '
#1060
0"
#1070
1"
1%
#1080
0"
#1090
1"
0%
#1100
0"
#1110
1"
#1120
0"
#1130
1"
#1140
0"
#1150
1"
#1160
0"
b0 '
b10001101000101 &
1$
b1101 #
#1170
b10001101000101 '
1"
b10001101000101 5
#1180
bz &
0"
0$
#1190
1"
#1200
0"
1%
b10001101000101 &
#1210
1"
#1220
0"
bz &
0%
#1230
1"
#1240
0"
#1250
1"
#1260
0"
#1270
1"
#1280
0"
#1290
1"
b0 '
b1110 #
b11010001010110 &
1$
#1300
0"
#1310
1"
0$
bz 6
bz '
bz &
#1320
0"
#1330
1"
1%
#1340
0"
#1350
1"
0%
#1360
0"
#1370
1"
#1380
0"
#1390
1"
#1400
0"
#1410
1"
#1420
0"
b11010001010110 &
1$
b0 '
b1111 #
#1430
1"
b11010001010110 '
b11010001010110 7
#1440
bz &
0$
0"
#1450
1"
#1460
0"
1%
b11010001010110 &
#1470
1"
#1480
0"
bz &
0%
